<?xml version="1.0" encoding="UTF-8" standalone="no"?>
<svg width="266px" height="169px" viewBox="0 0 266 169" version="1.1" xmlns="http://www.w3.org/2000/svg" xmlns:xlink="http://www.w3.org/1999/xlink">
    <!-- Generator: Sketch 3.6.1 (26313) - http://www.bohemiancoding.com/sketch -->
    <title>Group 6</title>
    <desc>Created with Sketch.</desc>
    <defs>
        <rect id="path-1" x="0" y="0" width="266" height="169"></rect>
    </defs>
    <g id="Page-1" stroke="none" stroke-width="1" fill="none" fill-rule="evenodd">
        <g id="Events-Copy" transform="translate(-176.000000, -516.000000)">
            <g id="Group-6" transform="translate(176.000000, 516.000000)">
                <mask id="mask-2" fill="white">
                    <use xlink:href="#path-1"></use>
                </mask>
                <use id="Mask" xlink:href="#path-1"></use>
                <g id="Line" mask="url(#mask-2)" fill="#303030">
                    <g transform="translate(304.500000, 3.500000) rotate(-270.000000) translate(-304.500000, -3.500000) translate(301.000000, -344.000000)" id="Imported-Layers">
                        <path d="M3.82474844,0.164804172 C4.03076799,0.111875012 4.05358972,0.284529467 4.06633447,0.467522724 C3.92579638,2.840618 3.8560806,4.58425591 4.28678213,6.78791653 C4.24506431,9.61262181 4.1558796,10.7055261 4.26352627,13.4083986 C4.95755757,17.3471088 3.9221269,23.4174898 4.94222402,26.9526239 C4.60746921,29.8297867 4.50547801,32.1864615 4.67104426,35.0746507 C4.80571113,36.7549572 3.94071164,37.1826352 3.932093,38.6833982 C4.11072859,40.2329859 3.96456887,41.8244656 3.9151823,43.4975384 C3.87133438,45.0230547 3.87133836,46.4511106 3.89933034,48.0102752 C3.95822303,51.2533412 3.55375575,54.4440075 4.35290868,57.0404576 C4.19258038,58.8542797 3.86730713,60.461418 3.60700489,62.1520559 C3.96900758,63.9042697 3.74276767,66.378756 4.07115608,68.1723614 C3.84110802,70.3017655 3.51275943,72.3079945 3.56261795,74.7881346 C3.01670253,76.3234018 4.11715863,79.3725594 3.05785612,80.8052673 C3.82003799,82.4931322 3.61418836,85.8324615 3.76086849,87.4276071 C4.14008986,89.9947583 3.76280209,91.6411098 3.97919866,94.3508077 C4.17024976,98.5590994 4.06414572,103.992204 4.65578623,108.495761 C4.61941456,110.274917 4.34910836,111.955108 4.395172,113.60999 C4.4459054,115.364674 4.90782228,116.780682 4.86354356,118.428839 C4.54349432,122.359974 4.83991331,127.061485 3.85341983,130.157534 C4.41483272,133.261974 5.16617359,136.130472 5.03009018,140.093785 C5.08327362,142.580179 4.53499843,144.31083 4.04004609,146.106209 C4.89911129,150.702677 3.29193585,156.609901 4.71662636,160.253241 C4.47921289,162.573844 3.75195561,164.282738 3.96605812,167.169111 C3.9433771,170.291172 4.77784561,172.361906 5.15012507,174.999695 C4.94163555,177.661359 4.78812768,180.391918 4.39470718,182.819767 C4.7814911,185.139596 4.64388496,188.10721 5.33992026,190.046238 C5.62418793,192.490232 5.80760546,195.060479 6.2817865,197.27269 C6.49490328,200.439681 5.46801426,203.602029 6.49377881,206.000154 C5.82924362,208.43277 5.64100431,211.522753 5.98056893,214.422278 C5.44824659,216.375435 5.28413469,218.789976 4.74682132,220.734791 C5.00422677,223.203583 4.91692987,225.188253 4.47986923,227.653282 C4.93201645,231.850517 4.61926425,234.657124 4.19916806,238.485861 C4.13518211,240.503916 4.62421079,242.300471 4.66437799,244.204763 C4.75046413,248.281529 4.03528514,252.268726 4.62104249,256.541517 C3.96032143,258.841118 4.62191138,261.534521 3.62676342,263.759555 C4.48181802,266.16299 3.53152495,268.957827 4.32659956,271.286105 C3.89312537,273.206538 4.92109303,276.883065 4.29912332,279.108043 C4.82575698,281.156323 4.79607432,283.889631 5.24372172,286.033102 C5.45765364,288.015247 4.5303071,288.565229 4.74424631,290.545296 C4.89472132,292.965699 4.80566471,295.451323 4.71888026,297.766506 C4.62853723,300.141952 4.79499296,302.300528 4.69562439,304.386988 C4.54113942,307.872104 4.52893831,311.345518 4.65651657,315.520207 C4.68949095,316.613774 4.92972751,317.77706 4.88753707,318.830724 C4.79036896,321.243549 3.89298718,323.267481 3.89370208,325.445946 C3.93542387,329.289658 3.99900224,333.104388 4.58358734,336.281706 C4.30421642,341.971629 4.68834651,346.47614 3.80068591,351.925795 C4.12802553,354.970763 3.61951927,357.289897 4.01373697,360.351856 C4.43283746,361.094139 3.83659688,363.140489 3.51576438,363.959831 C3.83149432,365.06948 4.05646572,366.290887 3.98731217,367.87447 C4.06094761,369.778943 3.52477928,370.921392 3.4851119,372.685979 C4.14717314,376.674405 3.89685694,379.809782 3.68759012,384.121917 C3.49300499,386.160051 3.99088132,387.343442 4.15596898,388.938687 C3.26002961,391.981182 3.71262954,396.049541 3.39209574,399.165829 C3.31145133,402.115045 3.38252787,406.177178 2.63095466,409.091577 C3.01410566,411.016436 3.09640887,413.311749 3.33501847,415.414592 C3.18858261,417.561079 3.43818058,418.917733 3.07396747,421.129558 C3.76785539,426.061878 4.01262363,430.222651 4.2358373,435.27922 C4.15227022,440.966046 4.05938886,445.016898 4.18192896,450.625851 C4.8128087,454.439498 5.07391676,458.712608 5.83587759,462.368986 C5.84908633,463.84908 6.83037901,464.139178 6.79315902,465.683439 C5.96087502,473.947932 6.56972625,481.650677 6.70542928,490.65835 C6.36814808,494.254724 5.43044045,497.754302 5.21212618,501.783687 C5.00266089,505.675927 5.39814575,509.806337 5.16984942,513.819038 C5.01462433,516.562059 4.29886454,519.285413 4.90033577,521.943152 C3.71501488,528.285028 4.04769534,533.620734 4.10642473,541.197855 C4.48074269,543.731721 5.19960701,545.841324 5.77728406,548.12685 C5.68446842,552.158994 5.60706728,554.66131 6.22602006,558.059155 C5.82234602,560.071212 5.57361296,562.279505 5.23491723,564.372982 C5.55699631,570.344708 4.52329481,575.446432 4.93519518,580.62043 C5.00014229,582.616318 3.99045536,583.263552 3.95210362,585.130003 C4.45403171,587.541918 3.73081756,590.005396 3.68304134,592.649223 C3.60890339,596.604556 4.3402257,600.884373 3.63970584,604.985977 C4.36488346,609.585877 4.41442136,615.015668 5.5278366,619.139575 C4.41717274,624.236724 5.33940544,629.430118 5.23128348,634.484891 C5.19113419,636.386669 4.73271215,638.263315 4.48494292,640.197227 C4.23029749,642.183068 4.15947185,644.24266 3.97851498,646.212272 C3.61484749,650.174351 2.80694315,653.880423 2.48415313,657.639012 C2.53674181,661.723911 3.19281368,664.082616 2.44715549,668.171503 C3.16665705,673.434473 4.01242323,680.864116 2.86797118,686.528562 C2.6959509,688.336085 3.5810851,688.846003 3.33846753,690.742526 C2.99001476,692.278863 4.21893263,694.010832 3.08208098,694.653219 C1.90043285,694.709175 2.11377002,693.049463 2.1237408,691.64017 C2.14044174,690.220519 1.70670403,689.357593 1.65114157,688.024856 C1.80692291,685.599876 1.90771531,683.10808 2.16179718,680.806276 C1.91607973,676.915726 1.21993824,673.577744 0.989354511,669.66649 C0.852500457,667.179642 1.33211463,665.46317 1.73675382,663.652751 C1.18306877,659.301143 1.76772757,654.835142 1.784317,650.112462 C1.80086261,645.402254 2.05084493,640.456341 2.07769388,635.671357 C2.09840809,632.156414 1.74088732,628.651894 1.87204674,625.137551 C1.95317571,623.003182 2.30158334,621.003298 2.37953342,618.821102 C2.61524694,612.22048 2.44996214,605.440996 2.93290987,598.964356 C2.59756895,593.433239 2.82603654,587.942595 2.50742974,582.411569 C2.4158846,580.841666 2.1187288,579.208289 2.03905088,577.594798 C1.76110979,571.920564 2.27494827,566.177866 2.34194186,560.445219 C2.37551897,557.556031 2.16648051,554.657212 2.12994955,551.717755 C2.09632731,548.903035 1.75986126,546.074202 1.67592713,543.290389 C1.5573379,539.415079 1.79418383,535.350457 1.95812381,531.555669 C2.11819125,527.910525 2.71616698,524.41742 3.20666464,521.031824 C3.47773023,513.895093 3.45604227,506.253733 3.52435614,499.668833 C3.47839937,497.030734 3.01876659,494.488091 3.06655012,491.842185 C3.07680102,491.305941 3.34489746,491.207617 3.31342258,490.639965 C3.23803473,489.234367 3.18316327,486.752121 3.09191617,484.620975 C2.83107296,478.36688 3.47274263,470.53372 3.16590415,463.558072 C3.03118949,460.462182 2.5846287,457.532975 2.47135443,454.526584 C3.98121442,445.357378 2.8616213,434.893451 1.84444752,426.238535 C1.30208274,419.617066 1.0303202,412.660316 0.219041176,406.369979 C0.550235436,400.21887 -0.255688799,393.356924 1.01189347,387.416679 C0.764980555,376.720513 1.15654047,364.818012 1.37292047,353.716935 C1.55485778,344.322269 2.31554018,335.003495 1.71324587,325.434128 C1.85324961,322.736755 2.36454644,320.099597 2.4697152,317.314731 C2.59530675,313.956259 2.20911162,310.516022 2.26300931,307.082329 C2.4050124,298.099027 2.70499133,287.495207 3.09391069,277.297213 C2.86610028,272.120056 2.50674147,267.233201 2.42155809,261.946646 C2.39831619,260.464419 2.46394037,258.932784 2.43741005,257.43391 C2.40962982,255.814464 2.04044427,254.201483 1.96903849,252.61506 C1.97376666,252.698233 1.98731659,250.746423 1.9764351,250.509394 C1.94261372,249.65695 2.2255359,249.149206 2.22647649,248.405042 C2.25283493,232.802584 1.70217147,216.633675 3.12396923,199.662691 C2.90040243,193.75386 2.89000286,188.139278 2.94218532,182.811894 C2.96066787,180.885054 3.05105603,178.973155 2.96227225,177.093544 C2.69108323,171.402716 1.61741701,165.967375 2.29564286,159.637301 C1.79594709,153.255112 1.87784541,146.614161 2.60593045,140.382055 C1.84881133,122.484641 1.80705705,104.358291 2.55354567,86.2175054 C1.60911587,76.8624666 0.894662446,65.8748287 1.69201256,56.1218082 C0.795009162,47.0809076 1.74539519,35.6844776 2.0407933,25.4319311 C2.14381869,21.8280517 2.01367488,17.4309299 2.32782503,12.7971675 C2.59963737,8.7826235 2.27747798,2.83376284 3.33795605,1.06639325 C3.32805299,0.550825979 3.52142271,0.287881186 3.82474844,0.164804172"></path>
                    </g>
                </g>
                <g id="Line" mask="url(#mask-2)" fill="#303030">
                    <g transform="translate(300.500000, 166.500000) rotate(-270.000000) translate(-300.500000, -166.500000) translate(297.000000, -181.000000)" id="Imported-Layers">
                        <path d="M3.82474844,0.164804172 C4.03076799,0.111875012 4.05358972,0.284529467 4.06633447,0.467522724 C3.92579638,2.840618 3.8560806,4.58425591 4.28678213,6.78791653 C4.24506431,9.61262181 4.1558796,10.7055261 4.26352627,13.4083986 C4.95755757,17.3471088 3.9221269,23.4174898 4.94222402,26.9526239 C4.60746921,29.8297867 4.50547801,32.1864615 4.67104426,35.0746507 C4.80571113,36.7549572 3.94071164,37.1826352 3.932093,38.6833982 C4.11072859,40.2329859 3.96456887,41.8244656 3.9151823,43.4975384 C3.87133438,45.0230547 3.87133836,46.4511106 3.89933034,48.0102752 C3.95822303,51.2533412 3.55375575,54.4440075 4.35290868,57.0404576 C4.19258038,58.8542797 3.86730713,60.461418 3.60700489,62.1520559 C3.96900758,63.9042697 3.74276767,66.378756 4.07115608,68.1723614 C3.84110802,70.3017655 3.51275943,72.3079945 3.56261795,74.7881346 C3.01670253,76.3234018 4.11715863,79.3725594 3.05785612,80.8052673 C3.82003799,82.4931322 3.61418836,85.8324615 3.76086849,87.4276071 C4.14008986,89.9947583 3.76280209,91.6411098 3.97919866,94.3508077 C4.17024976,98.5590994 4.06414572,103.992204 4.65578623,108.495761 C4.61941456,110.274917 4.34910836,111.955108 4.395172,113.60999 C4.4459054,115.364674 4.90782228,116.780682 4.86354356,118.428839 C4.54349432,122.359974 4.83991331,127.061485 3.85341983,130.157534 C4.41483272,133.261974 5.16617359,136.130472 5.03009018,140.093785 C5.08327362,142.580179 4.53499843,144.31083 4.04004609,146.106209 C4.89911129,150.702677 3.29193585,156.609901 4.71662636,160.253241 C4.47921289,162.573844 3.75195561,164.282738 3.96605812,167.169111 C3.9433771,170.291172 4.77784561,172.361906 5.15012507,174.999695 C4.94163555,177.661359 4.78812768,180.391918 4.39470718,182.819767 C4.7814911,185.139596 4.64388496,188.10721 5.33992026,190.046238 C5.62418793,192.490232 5.80760546,195.060479 6.2817865,197.27269 C6.49490328,200.439681 5.46801426,203.602029 6.49377881,206.000154 C5.82924362,208.43277 5.64100431,211.522753 5.98056893,214.422278 C5.44824659,216.375435 5.28413469,218.789976 4.74682132,220.734791 C5.00422677,223.203583 4.91692987,225.188253 4.47986923,227.653282 C4.93201645,231.850517 4.61926425,234.657124 4.19916806,238.485861 C4.13518211,240.503916 4.62421079,242.300471 4.66437799,244.204763 C4.75046413,248.281529 4.03528514,252.268726 4.62104249,256.541517 C3.96032143,258.841118 4.62191138,261.534521 3.62676342,263.759555 C4.48181802,266.16299 3.53152495,268.957827 4.32659956,271.286105 C3.89312537,273.206538 4.92109303,276.883065 4.29912332,279.108043 C4.82575698,281.156323 4.79607432,283.889631 5.24372172,286.033102 C5.45765364,288.015247 4.5303071,288.565229 4.74424631,290.545296 C4.89472132,292.965699 4.80566471,295.451323 4.71888026,297.766506 C4.62853723,300.141952 4.79499296,302.300528 4.69562439,304.386988 C4.54113942,307.872104 4.52893831,311.345518 4.65651657,315.520207 C4.68949095,316.613774 4.92972751,317.77706 4.88753707,318.830724 C4.79036896,321.243549 3.89298718,323.267481 3.89370208,325.445946 C3.93542387,329.289658 3.99900224,333.104388 4.58358734,336.281706 C4.30421642,341.971629 4.68834651,346.47614 3.80068591,351.925795 C4.12802553,354.970763 3.61951927,357.289897 4.01373697,360.351856 C4.43283746,361.094139 3.83659688,363.140489 3.51576438,363.959831 C3.83149432,365.06948 4.05646572,366.290887 3.98731217,367.87447 C4.06094761,369.778943 3.52477928,370.921392 3.4851119,372.685979 C4.14717314,376.674405 3.89685694,379.809782 3.68759012,384.121917 C3.49300499,386.160051 3.99088132,387.343442 4.15596898,388.938687 C3.26002961,391.981182 3.71262954,396.049541 3.39209574,399.165829 C3.31145133,402.115045 3.38252787,406.177178 2.63095466,409.091577 C3.01410566,411.016436 3.09640887,413.311749 3.33501847,415.414592 C3.18858261,417.561079 3.43818058,418.917733 3.07396747,421.129558 C3.76785539,426.061878 4.01262363,430.222651 4.2358373,435.27922 C4.15227022,440.966046 4.05938886,445.016898 4.18192896,450.625851 C4.8128087,454.439498 5.07391676,458.712608 5.83587759,462.368986 C5.84908633,463.84908 6.83037901,464.139178 6.79315902,465.683439 C5.96087502,473.947932 6.56972625,481.650677 6.70542928,490.65835 C6.36814808,494.254724 5.43044045,497.754302 5.21212618,501.783687 C5.00266089,505.675927 5.39814575,509.806337 5.16984942,513.819038 C5.01462433,516.562059 4.29886454,519.285413 4.90033577,521.943152 C3.71501488,528.285028 4.04769534,533.620734 4.10642473,541.197855 C4.48074269,543.731721 5.19960701,545.841324 5.77728406,548.12685 C5.68446842,552.158994 5.60706728,554.66131 6.22602006,558.059155 C5.82234602,560.071212 5.57361296,562.279505 5.23491723,564.372982 C5.55699631,570.344708 4.52329481,575.446432 4.93519518,580.62043 C5.00014229,582.616318 3.99045536,583.263552 3.95210362,585.130003 C4.45403171,587.541918 3.73081756,590.005396 3.68304134,592.649223 C3.60890339,596.604556 4.3402257,600.884373 3.63970584,604.985977 C4.36488346,609.585877 4.41442136,615.015668 5.5278366,619.139575 C4.41717274,624.236724 5.33940544,629.430118 5.23128348,634.484891 C5.19113419,636.386669 4.73271215,638.263315 4.48494292,640.197227 C4.23029749,642.183068 4.15947185,644.24266 3.97851498,646.212272 C3.61484749,650.174351 2.80694315,653.880423 2.48415313,657.639012 C2.53674181,661.723911 3.19281368,664.082616 2.44715549,668.171503 C3.16665705,673.434473 4.01242323,680.864116 2.86797118,686.528562 C2.6959509,688.336085 3.5810851,688.846003 3.33846753,690.742526 C2.99001476,692.278863 4.21893263,694.010832 3.08208098,694.653219 C1.90043285,694.709175 2.11377002,693.049463 2.1237408,691.64017 C2.14044174,690.220519 1.70670403,689.357593 1.65114157,688.024856 C1.80692291,685.599876 1.90771531,683.10808 2.16179718,680.806276 C1.91607973,676.915726 1.21993824,673.577744 0.989354511,669.66649 C0.852500457,667.179642 1.33211463,665.46317 1.73675382,663.652751 C1.18306877,659.301143 1.76772757,654.835142 1.784317,650.112462 C1.80086261,645.402254 2.05084493,640.456341 2.07769388,635.671357 C2.09840809,632.156414 1.74088732,628.651894 1.87204674,625.137551 C1.95317571,623.003182 2.30158334,621.003298 2.37953342,618.821102 C2.61524694,612.22048 2.44996214,605.440996 2.93290987,598.964356 C2.59756895,593.433239 2.82603654,587.942595 2.50742974,582.411569 C2.4158846,580.841666 2.1187288,579.208289 2.03905088,577.594798 C1.76110979,571.920564 2.27494827,566.177866 2.34194186,560.445219 C2.37551897,557.556031 2.16648051,554.657212 2.12994955,551.717755 C2.09632731,548.903035 1.75986126,546.074202 1.67592713,543.290389 C1.5573379,539.415079 1.79418383,535.350457 1.95812381,531.555669 C2.11819125,527.910525 2.71616698,524.41742 3.20666464,521.031824 C3.47773023,513.895093 3.45604227,506.253733 3.52435614,499.668833 C3.47839937,497.030734 3.01876659,494.488091 3.06655012,491.842185 C3.07680102,491.305941 3.34489746,491.207617 3.31342258,490.639965 C3.23803473,489.234367 3.18316327,486.752121 3.09191617,484.620975 C2.83107296,478.36688 3.47274263,470.53372 3.16590415,463.558072 C3.03118949,460.462182 2.5846287,457.532975 2.47135443,454.526584 C3.98121442,445.357378 2.8616213,434.893451 1.84444752,426.238535 C1.30208274,419.617066 1.0303202,412.660316 0.219041176,406.369979 C0.550235436,400.21887 -0.255688799,393.356924 1.01189347,387.416679 C0.764980555,376.720513 1.15654047,364.818012 1.37292047,353.716935 C1.55485778,344.322269 2.31554018,335.003495 1.71324587,325.434128 C1.85324961,322.736755 2.36454644,320.099597 2.4697152,317.314731 C2.59530675,313.956259 2.20911162,310.516022 2.26300931,307.082329 C2.4050124,298.099027 2.70499133,287.495207 3.09391069,277.297213 C2.86610028,272.120056 2.50674147,267.233201 2.42155809,261.946646 C2.39831619,260.464419 2.46394037,258.932784 2.43741005,257.43391 C2.40962982,255.814464 2.04044427,254.201483 1.96903849,252.61506 C1.97376666,252.698233 1.98731659,250.746423 1.9764351,250.509394 C1.94261372,249.65695 2.2255359,249.149206 2.22647649,248.405042 C2.25283493,232.802584 1.70217147,216.633675 3.12396923,199.662691 C2.90040243,193.75386 2.89000286,188.139278 2.94218532,182.811894 C2.96066787,180.885054 3.05105603,178.973155 2.96227225,177.093544 C2.69108323,171.402716 1.61741701,165.967375 2.29564286,159.637301 C1.79594709,153.255112 1.87784541,146.614161 2.60593045,140.382055 C1.84881133,122.484641 1.80705705,104.358291 2.55354567,86.2175054 C1.60911587,76.8624666 0.894662446,65.8748287 1.69201256,56.1218082 C0.795009162,47.0809076 1.74539519,35.6844776 2.0407933,25.4319311 C2.14381869,21.8280517 2.01367488,17.4309299 2.32782503,12.7971675 C2.59963737,8.7826235 2.27747798,2.83376284 3.33795605,1.06639325 C3.32805299,0.550825979 3.52142271,0.287881186 3.82474844,0.164804172"></path>
                    </g>
                </g>
                <g id="Line" mask="url(#mask-2)" fill="#303030">
                    <g transform="translate(0.000000, -344.000000)" id="Imported-Layers">
                        <path d="M3.82474844,0.164804172 C4.03076799,0.111875012 4.05358972,0.284529467 4.06633447,0.467522724 C3.92579638,2.840618 3.8560806,4.58425591 4.28678213,6.78791653 C4.24506431,9.61262181 4.1558796,10.7055261 4.26352627,13.4083986 C4.95755757,17.3471088 3.9221269,23.4174898 4.94222402,26.9526239 C4.60746921,29.8297867 4.50547801,32.1864615 4.67104426,35.0746507 C4.80571113,36.7549572 3.94071164,37.1826352 3.932093,38.6833982 C4.11072859,40.2329859 3.96456887,41.8244656 3.9151823,43.4975384 C3.87133438,45.0230547 3.87133836,46.4511106 3.89933034,48.0102752 C3.95822303,51.2533412 3.55375575,54.4440075 4.35290868,57.0404576 C4.19258038,58.8542797 3.86730713,60.461418 3.60700489,62.1520559 C3.96900758,63.9042697 3.74276767,66.378756 4.07115608,68.1723614 C3.84110802,70.3017655 3.51275943,72.3079945 3.56261795,74.7881346 C3.01670253,76.3234018 4.11715863,79.3725594 3.05785612,80.8052673 C3.82003799,82.4931322 3.61418836,85.8324615 3.76086849,87.4276071 C4.14008986,89.9947583 3.76280209,91.6411098 3.97919866,94.3508077 C4.17024976,98.5590994 4.06414572,103.992204 4.65578623,108.495761 C4.61941456,110.274917 4.34910836,111.955108 4.395172,113.60999 C4.4459054,115.364674 4.90782228,116.780682 4.86354356,118.428839 C4.54349432,122.359974 4.83991331,127.061485 3.85341983,130.157534 C4.41483272,133.261974 5.16617359,136.130472 5.03009018,140.093785 C5.08327362,142.580179 4.53499843,144.31083 4.04004609,146.106209 C4.89911129,150.702677 3.29193585,156.609901 4.71662636,160.253241 C4.47921289,162.573844 3.75195561,164.282738 3.96605812,167.169111 C3.9433771,170.291172 4.77784561,172.361906 5.15012507,174.999695 C4.94163555,177.661359 4.78812768,180.391918 4.39470718,182.819767 C4.7814911,185.139596 4.64388496,188.10721 5.33992026,190.046238 C5.62418793,192.490232 5.80760546,195.060479 6.2817865,197.27269 C6.49490328,200.439681 5.46801426,203.602029 6.49377881,206.000154 C5.82924362,208.43277 5.64100431,211.522753 5.98056893,214.422278 C5.44824659,216.375435 5.28413469,218.789976 4.74682132,220.734791 C5.00422677,223.203583 4.91692987,225.188253 4.47986923,227.653282 C4.93201645,231.850517 4.61926425,234.657124 4.19916806,238.485861 C4.13518211,240.503916 4.62421079,242.300471 4.66437799,244.204763 C4.75046413,248.281529 4.03528514,252.268726 4.62104249,256.541517 C3.96032143,258.841118 4.62191138,261.534521 3.62676342,263.759555 C4.48181802,266.16299 3.53152495,268.957827 4.32659956,271.286105 C3.89312537,273.206538 4.92109303,276.883065 4.29912332,279.108043 C4.82575698,281.156323 4.79607432,283.889631 5.24372172,286.033102 C5.45765364,288.015247 4.5303071,288.565229 4.74424631,290.545296 C4.89472132,292.965699 4.80566471,295.451323 4.71888026,297.766506 C4.62853723,300.141952 4.79499296,302.300528 4.69562439,304.386988 C4.54113942,307.872104 4.52893831,311.345518 4.65651657,315.520207 C4.68949095,316.613774 4.92972751,317.77706 4.88753707,318.830724 C4.79036896,321.243549 3.89298718,323.267481 3.89370208,325.445946 C3.93542387,329.289658 3.99900224,333.104388 4.58358734,336.281706 C4.30421642,341.971629 4.68834651,346.47614 3.80068591,351.925795 C4.12802553,354.970763 3.61951927,357.289897 4.01373697,360.351856 C4.43283746,361.094139 3.83659688,363.140489 3.51576438,363.959831 C3.83149432,365.06948 4.05646572,366.290887 3.98731217,367.87447 C4.06094761,369.778943 3.52477928,370.921392 3.4851119,372.685979 C4.14717314,376.674405 3.89685694,379.809782 3.68759012,384.121917 C3.49300499,386.160051 3.99088132,387.343442 4.15596898,388.938687 C3.26002961,391.981182 3.71262954,396.049541 3.39209574,399.165829 C3.31145133,402.115045 3.38252787,406.177178 2.63095466,409.091577 C3.01410566,411.016436 3.09640887,413.311749 3.33501847,415.414592 C3.18858261,417.561079 3.43818058,418.917733 3.07396747,421.129558 C3.76785539,426.061878 4.01262363,430.222651 4.2358373,435.27922 C4.15227022,440.966046 4.05938886,445.016898 4.18192896,450.625851 C4.8128087,454.439498 5.07391676,458.712608 5.83587759,462.368986 C5.84908633,463.84908 6.83037901,464.139178 6.79315902,465.683439 C5.96087502,473.947932 6.56972625,481.650677 6.70542928,490.65835 C6.36814808,494.254724 5.43044045,497.754302 5.21212618,501.783687 C5.00266089,505.675927 5.39814575,509.806337 5.16984942,513.819038 C5.01462433,516.562059 4.29886454,519.285413 4.90033577,521.943152 C3.71501488,528.285028 4.04769534,533.620734 4.10642473,541.197855 C4.48074269,543.731721 5.19960701,545.841324 5.77728406,548.12685 C5.68446842,552.158994 5.60706728,554.66131 6.22602006,558.059155 C5.82234602,560.071212 5.57361296,562.279505 5.23491723,564.372982 C5.55699631,570.344708 4.52329481,575.446432 4.93519518,580.62043 C5.00014229,582.616318 3.99045536,583.263552 3.95210362,585.130003 C4.45403171,587.541918 3.73081756,590.005396 3.68304134,592.649223 C3.60890339,596.604556 4.3402257,600.884373 3.63970584,604.985977 C4.36488346,609.585877 4.41442136,615.015668 5.5278366,619.139575 C4.41717274,624.236724 5.33940544,629.430118 5.23128348,634.484891 C5.19113419,636.386669 4.73271215,638.263315 4.48494292,640.197227 C4.23029749,642.183068 4.15947185,644.24266 3.97851498,646.212272 C3.61484749,650.174351 2.80694315,653.880423 2.48415313,657.639012 C2.53674181,661.723911 3.19281368,664.082616 2.44715549,668.171503 C3.16665705,673.434473 4.01242323,680.864116 2.86797118,686.528562 C2.6959509,688.336085 3.5810851,688.846003 3.33846753,690.742526 C2.99001476,692.278863 4.21893263,694.010832 3.08208098,694.653219 C1.90043285,694.709175 2.11377002,693.049463 2.1237408,691.64017 C2.14044174,690.220519 1.70670403,689.357593 1.65114157,688.024856 C1.80692291,685.599876 1.90771531,683.10808 2.16179718,680.806276 C1.91607973,676.915726 1.21993824,673.577744 0.989354511,669.66649 C0.852500457,667.179642 1.33211463,665.46317 1.73675382,663.652751 C1.18306877,659.301143 1.76772757,654.835142 1.784317,650.112462 C1.80086261,645.402254 2.05084493,640.456341 2.07769388,635.671357 C2.09840809,632.156414 1.74088732,628.651894 1.87204674,625.137551 C1.95317571,623.003182 2.30158334,621.003298 2.37953342,618.821102 C2.61524694,612.22048 2.44996214,605.440996 2.93290987,598.964356 C2.59756895,593.433239 2.82603654,587.942595 2.50742974,582.411569 C2.4158846,580.841666 2.1187288,579.208289 2.03905088,577.594798 C1.76110979,571.920564 2.27494827,566.177866 2.34194186,560.445219 C2.37551897,557.556031 2.16648051,554.657212 2.12994955,551.717755 C2.09632731,548.903035 1.75986126,546.074202 1.67592713,543.290389 C1.5573379,539.415079 1.79418383,535.350457 1.95812381,531.555669 C2.11819125,527.910525 2.71616698,524.41742 3.20666464,521.031824 C3.47773023,513.895093 3.45604227,506.253733 3.52435614,499.668833 C3.47839937,497.030734 3.01876659,494.488091 3.06655012,491.842185 C3.07680102,491.305941 3.34489746,491.207617 3.31342258,490.639965 C3.23803473,489.234367 3.18316327,486.752121 3.09191617,484.620975 C2.83107296,478.36688 3.47274263,470.53372 3.16590415,463.558072 C3.03118949,460.462182 2.5846287,457.532975 2.47135443,454.526584 C3.98121442,445.357378 2.8616213,434.893451 1.84444752,426.238535 C1.30208274,419.617066 1.0303202,412.660316 0.219041176,406.369979 C0.550235436,400.21887 -0.255688799,393.356924 1.01189347,387.416679 C0.764980555,376.720513 1.15654047,364.818012 1.37292047,353.716935 C1.55485778,344.322269 2.31554018,335.003495 1.71324587,325.434128 C1.85324961,322.736755 2.36454644,320.099597 2.4697152,317.314731 C2.59530675,313.956259 2.20911162,310.516022 2.26300931,307.082329 C2.4050124,298.099027 2.70499133,287.495207 3.09391069,277.297213 C2.86610028,272.120056 2.50674147,267.233201 2.42155809,261.946646 C2.39831619,260.464419 2.46394037,258.932784 2.43741005,257.43391 C2.40962982,255.814464 2.04044427,254.201483 1.96903849,252.61506 C1.97376666,252.698233 1.98731659,250.746423 1.9764351,250.509394 C1.94261372,249.65695 2.2255359,249.149206 2.22647649,248.405042 C2.25283493,232.802584 1.70217147,216.633675 3.12396923,199.662691 C2.90040243,193.75386 2.89000286,188.139278 2.94218532,182.811894 C2.96066787,180.885054 3.05105603,178.973155 2.96227225,177.093544 C2.69108323,171.402716 1.61741701,165.967375 2.29564286,159.637301 C1.79594709,153.255112 1.87784541,146.614161 2.60593045,140.382055 C1.84881133,122.484641 1.80705705,104.358291 2.55354567,86.2175054 C1.60911587,76.8624666 0.894662446,65.8748287 1.69201256,56.1218082 C0.795009162,47.0809076 1.74539519,35.6844776 2.0407933,25.4319311 C2.14381869,21.8280517 2.01367488,17.4309299 2.32782503,12.7971675 C2.59963737,8.7826235 2.27747798,2.83376284 3.33795605,1.06639325 C3.32805299,0.550825979 3.52142271,0.287881186 3.82474844,0.164804172"></path>
                    </g>
                </g>
                <g id="Line" mask="url(#mask-2)" fill="#303030">
                    <g transform="translate(260.000000, -344.000000)" id="Imported-Layers">
                        <path d="M3.82474844,0.164804172 C4.03076799,0.111875012 4.05358972,0.284529467 4.06633447,0.467522724 C3.92579638,2.840618 3.8560806,4.58425591 4.28678213,6.78791653 C4.24506431,9.61262181 4.1558796,10.7055261 4.26352627,13.4083986 C4.95755757,17.3471088 3.9221269,23.4174898 4.94222402,26.9526239 C4.60746921,29.8297867 4.50547801,32.1864615 4.67104426,35.0746507 C4.80571113,36.7549572 3.94071164,37.1826352 3.932093,38.6833982 C4.11072859,40.2329859 3.96456887,41.8244656 3.9151823,43.4975384 C3.87133438,45.0230547 3.87133836,46.4511106 3.89933034,48.0102752 C3.95822303,51.2533412 3.55375575,54.4440075 4.35290868,57.0404576 C4.19258038,58.8542797 3.86730713,60.461418 3.60700489,62.1520559 C3.96900758,63.9042697 3.74276767,66.378756 4.07115608,68.1723614 C3.84110802,70.3017655 3.51275943,72.3079945 3.56261795,74.7881346 C3.01670253,76.3234018 4.11715863,79.3725594 3.05785612,80.8052673 C3.82003799,82.4931322 3.61418836,85.8324615 3.76086849,87.4276071 C4.14008986,89.9947583 3.76280209,91.6411098 3.97919866,94.3508077 C4.17024976,98.5590994 4.06414572,103.992204 4.65578623,108.495761 C4.61941456,110.274917 4.34910836,111.955108 4.395172,113.60999 C4.4459054,115.364674 4.90782228,116.780682 4.86354356,118.428839 C4.54349432,122.359974 4.83991331,127.061485 3.85341983,130.157534 C4.41483272,133.261974 5.16617359,136.130472 5.03009018,140.093785 C5.08327362,142.580179 4.53499843,144.31083 4.04004609,146.106209 C4.89911129,150.702677 3.29193585,156.609901 4.71662636,160.253241 C4.47921289,162.573844 3.75195561,164.282738 3.96605812,167.169111 C3.9433771,170.291172 4.77784561,172.361906 5.15012507,174.999695 C4.94163555,177.661359 4.78812768,180.391918 4.39470718,182.819767 C4.7814911,185.139596 4.64388496,188.10721 5.33992026,190.046238 C5.62418793,192.490232 5.80760546,195.060479 6.2817865,197.27269 C6.49490328,200.439681 5.46801426,203.602029 6.49377881,206.000154 C5.82924362,208.43277 5.64100431,211.522753 5.98056893,214.422278 C5.44824659,216.375435 5.28413469,218.789976 4.74682132,220.734791 C5.00422677,223.203583 4.91692987,225.188253 4.47986923,227.653282 C4.93201645,231.850517 4.61926425,234.657124 4.19916806,238.485861 C4.13518211,240.503916 4.62421079,242.300471 4.66437799,244.204763 C4.75046413,248.281529 4.03528514,252.268726 4.62104249,256.541517 C3.96032143,258.841118 4.62191138,261.534521 3.62676342,263.759555 C4.48181802,266.16299 3.53152495,268.957827 4.32659956,271.286105 C3.89312537,273.206538 4.92109303,276.883065 4.29912332,279.108043 C4.82575698,281.156323 4.79607432,283.889631 5.24372172,286.033102 C5.45765364,288.015247 4.5303071,288.565229 4.74424631,290.545296 C4.89472132,292.965699 4.80566471,295.451323 4.71888026,297.766506 C4.62853723,300.141952 4.79499296,302.300528 4.69562439,304.386988 C4.54113942,307.872104 4.52893831,311.345518 4.65651657,315.520207 C4.68949095,316.613774 4.92972751,317.77706 4.88753707,318.830724 C4.79036896,321.243549 3.89298718,323.267481 3.89370208,325.445946 C3.93542387,329.289658 3.99900224,333.104388 4.58358734,336.281706 C4.30421642,341.971629 4.68834651,346.47614 3.80068591,351.925795 C4.12802553,354.970763 3.61951927,357.289897 4.01373697,360.351856 C4.43283746,361.094139 3.83659688,363.140489 3.51576438,363.959831 C3.83149432,365.06948 4.05646572,366.290887 3.98731217,367.87447 C4.06094761,369.778943 3.52477928,370.921392 3.4851119,372.685979 C4.14717314,376.674405 3.89685694,379.809782 3.68759012,384.121917 C3.49300499,386.160051 3.99088132,387.343442 4.15596898,388.938687 C3.26002961,391.981182 3.71262954,396.049541 3.39209574,399.165829 C3.31145133,402.115045 3.38252787,406.177178 2.63095466,409.091577 C3.01410566,411.016436 3.09640887,413.311749 3.33501847,415.414592 C3.18858261,417.561079 3.43818058,418.917733 3.07396747,421.129558 C3.76785539,426.061878 4.01262363,430.222651 4.2358373,435.27922 C4.15227022,440.966046 4.05938886,445.016898 4.18192896,450.625851 C4.8128087,454.439498 5.07391676,458.712608 5.83587759,462.368986 C5.84908633,463.84908 6.83037901,464.139178 6.79315902,465.683439 C5.96087502,473.947932 6.56972625,481.650677 6.70542928,490.65835 C6.36814808,494.254724 5.43044045,497.754302 5.21212618,501.783687 C5.00266089,505.675927 5.39814575,509.806337 5.16984942,513.819038 C5.01462433,516.562059 4.29886454,519.285413 4.90033577,521.943152 C3.71501488,528.285028 4.04769534,533.620734 4.10642473,541.197855 C4.48074269,543.731721 5.19960701,545.841324 5.77728406,548.12685 C5.68446842,552.158994 5.60706728,554.66131 6.22602006,558.059155 C5.82234602,560.071212 5.57361296,562.279505 5.23491723,564.372982 C5.55699631,570.344708 4.52329481,575.446432 4.93519518,580.62043 C5.00014229,582.616318 3.99045536,583.263552 3.95210362,585.130003 C4.45403171,587.541918 3.73081756,590.005396 3.68304134,592.649223 C3.60890339,596.604556 4.3402257,600.884373 3.63970584,604.985977 C4.36488346,609.585877 4.41442136,615.015668 5.5278366,619.139575 C4.41717274,624.236724 5.33940544,629.430118 5.23128348,634.484891 C5.19113419,636.386669 4.73271215,638.263315 4.48494292,640.197227 C4.23029749,642.183068 4.15947185,644.24266 3.97851498,646.212272 C3.61484749,650.174351 2.80694315,653.880423 2.48415313,657.639012 C2.53674181,661.723911 3.19281368,664.082616 2.44715549,668.171503 C3.16665705,673.434473 4.01242323,680.864116 2.86797118,686.528562 C2.6959509,688.336085 3.5810851,688.846003 3.33846753,690.742526 C2.99001476,692.278863 4.21893263,694.010832 3.08208098,694.653219 C1.90043285,694.709175 2.11377002,693.049463 2.1237408,691.64017 C2.14044174,690.220519 1.70670403,689.357593 1.65114157,688.024856 C1.80692291,685.599876 1.90771531,683.10808 2.16179718,680.806276 C1.91607973,676.915726 1.21993824,673.577744 0.989354511,669.66649 C0.852500457,667.179642 1.33211463,665.46317 1.73675382,663.652751 C1.18306877,659.301143 1.76772757,654.835142 1.784317,650.112462 C1.80086261,645.402254 2.05084493,640.456341 2.07769388,635.671357 C2.09840809,632.156414 1.74088732,628.651894 1.87204674,625.137551 C1.95317571,623.003182 2.30158334,621.003298 2.37953342,618.821102 C2.61524694,612.22048 2.44996214,605.440996 2.93290987,598.964356 C2.59756895,593.433239 2.82603654,587.942595 2.50742974,582.411569 C2.4158846,580.841666 2.1187288,579.208289 2.03905088,577.594798 C1.76110979,571.920564 2.27494827,566.177866 2.34194186,560.445219 C2.37551897,557.556031 2.16648051,554.657212 2.12994955,551.717755 C2.09632731,548.903035 1.75986126,546.074202 1.67592713,543.290389 C1.5573379,539.415079 1.79418383,535.350457 1.95812381,531.555669 C2.11819125,527.910525 2.71616698,524.41742 3.20666464,521.031824 C3.47773023,513.895093 3.45604227,506.253733 3.52435614,499.668833 C3.47839937,497.030734 3.01876659,494.488091 3.06655012,491.842185 C3.07680102,491.305941 3.34489746,491.207617 3.31342258,490.639965 C3.23803473,489.234367 3.18316327,486.752121 3.09191617,484.620975 C2.83107296,478.36688 3.47274263,470.53372 3.16590415,463.558072 C3.03118949,460.462182 2.5846287,457.532975 2.47135443,454.526584 C3.98121442,445.357378 2.8616213,434.893451 1.84444752,426.238535 C1.30208274,419.617066 1.0303202,412.660316 0.219041176,406.369979 C0.550235436,400.21887 -0.255688799,393.356924 1.01189347,387.416679 C0.764980555,376.720513 1.15654047,364.818012 1.37292047,353.716935 C1.55485778,344.322269 2.31554018,335.003495 1.71324587,325.434128 C1.85324961,322.736755 2.36454644,320.099597 2.4697152,317.314731 C2.59530675,313.956259 2.20911162,310.516022 2.26300931,307.082329 C2.4050124,298.099027 2.70499133,287.495207 3.09391069,277.297213 C2.86610028,272.120056 2.50674147,267.233201 2.42155809,261.946646 C2.39831619,260.464419 2.46394037,258.932784 2.43741005,257.43391 C2.40962982,255.814464 2.04044427,254.201483 1.96903849,252.61506 C1.97376666,252.698233 1.98731659,250.746423 1.9764351,250.509394 C1.94261372,249.65695 2.2255359,249.149206 2.22647649,248.405042 C2.25283493,232.802584 1.70217147,216.633675 3.12396923,199.662691 C2.90040243,193.75386 2.89000286,188.139278 2.94218532,182.811894 C2.96066787,180.885054 3.05105603,178.973155 2.96227225,177.093544 C2.69108323,171.402716 1.61741701,165.967375 2.29564286,159.637301 C1.79594709,153.255112 1.87784541,146.614161 2.60593045,140.382055 C1.84881133,122.484641 1.80705705,104.358291 2.55354567,86.2175054 C1.60911587,76.8624666 0.894662446,65.8748287 1.69201256,56.1218082 C0.795009162,47.0809076 1.74539519,35.6844776 2.0407933,25.4319311 C2.14381869,21.8280517 2.01367488,17.4309299 2.32782503,12.7971675 C2.59963737,8.7826235 2.27747798,2.83376284 3.33795605,1.06639325 C3.32805299,0.550825979 3.52142271,0.287881186 3.82474844,0.164804172"></path>
                    </g>
                </g>
            </g>
        </g>
    </g>
</svg>