<?xml version="1.0" encoding="UTF-8" standalone="no"?>
<svg width="988px" height="19px" viewBox="0 0 988 19" version="1.1" xmlns="http://www.w3.org/2000/svg" xmlns:xlink="http://www.w3.org/1999/xlink" xmlns:sketch="http://www.bohemiancoding.com/sketch/ns">
    <!-- Generator: Sketch 3.3.3 (12072) - http://www.bohemiancoding.com/sketch -->
    <title>Rectangle 141 + Imported Layers Copy 5</title>
    <desc>Created with Sketch.</desc>
    <defs></defs>
    <g id="Page-1" stroke="none" stroke-width="1" fill="none" fill-rule="evenodd" sketch:type="MSPage">
        <g id="Books-grouped" sketch:type="MSArtboardGroup" transform="translate(-176.000000, -1091.000000)">
            <g id="Rectangle-141-+-Imported-Layers-Copy-5" sketch:type="MSLayerGroup" transform="translate(176.000000, 1088.000000)">
                <rect id="Rectangle-141" fill="#FFFDF8" sketch:type="MSShapeGroup" x="0" y="11" width="987" height="11"></rect>
                <path d="M491.752107,-487.097623 C492.115599,-487.174459 492.156972,-486.929175 492.180614,-486.669115 C491.947152,-483.29425 491.834853,-480.814817 492.609122,-477.685235 C492.552972,-473.669085 492.402256,-472.114638 492.609122,-468.272847 C493.859181,-462.678608 492.068316,-454.040488 493.891689,-449.022518 C493.318375,-444.929533 493.152883,-441.578309 493.463181,-437.473503 C493.71142,-435.085682 492.186525,-434.470996 492.180614,-432.337324 C492.505689,-430.135682 492.25745,-427.871981 492.180614,-425.493026 C492.112644,-423.323891 492.12151,-421.293653 492.180614,-419.077235 C492.304734,-414.467085 491.610256,-409.927861 493.037629,-406.242697 C492.765749,-403.662787 492.201301,-401.375444 491.752107,-398.969891 C492.402256,-396.481593 492.018077,-392.961921 492.609122,-390.414518 C492.216077,-387.385414 491.648674,-384.530667 491.752107,-381.005085 C490.797569,-378.81822 492.759838,-374.491772 490.898047,-372.446757 C492.254495,-370.053026 491.911689,-365.303981 492.180614,-363.037324 C492.866226,-359.390578 492.210166,-357.047085 492.609122,-353.196429 C492.972614,-347.215056 492.818943,-339.4901 493.891689,-333.092041 C493.838495,-330.562369 493.371569,-328.171593 493.463181,-325.819235 C493.563659,-323.325026 494.388166,-321.315473 494.320196,-318.971981 C493.77939,-313.380697 494.332017,-306.698936 492.609122,-302.289742 C493.619808,-297.880548 494.964435,-293.80825 494.748704,-288.172638 C494.858047,-284.63819 493.900554,-282.173533 493.037629,-279.617264 C494.583211,-273.089175 491.781659,-264.678608 494.320196,-259.509921 C493.915331,-256.208936 492.641629,-253.773832 493.037629,-249.671981 C493.016943,-245.233235 494.50342,-242.295742 495.177211,-238.548518 C494.82554,-234.762876 494.57139,-230.879712 493.891689,-227.425056 C494.589122,-224.129981 494.364525,-219.909921 495.605719,-217.158608 C496.122883,-213.68622 496.462734,-210.033563 497.313838,-206.89216 C497.709838,-202.391354 495.916017,-197.887593 497.742346,-194.48613 C496.583898,-191.022608 496.270644,-186.62819 496.888286,-182.508608 C495.960346,-179.727742 495.68551,-176.293772 494.748704,-173.524727 C495.218584,-170.016876 495.076734,-167.194638 494.320196,-163.686787 C495.144704,-157.723145 494.609808,-153.730638 493.891689,-148.28416 C493.791211,-145.414638 494.665957,-142.864279 494.748704,-140.157294 C494.926017,-134.3621 493.687778,-128.68807 494.748704,-122.618041 C493.596166,-119.343653 494.781211,-115.519593 493.037629,-112.348638 C494.562525,-108.938309 492.901689,-104.957623 494.320196,-101.653682 C493.566614,-98.9201003 495.404763,-93.7011749 494.320196,-90.5331749 C495.262913,-87.6252346 495.22745,-83.7391152 496.031271,-80.6952346 C496.42136,-77.8789063 494.787122,-77.0898615 495.177211,-74.2764884 C495.457957,-70.8366078 495.316107,-67.30216 495.177211,-64.0100406 C495.032405,-60.6322197 495.339749,-57.5646973 495.177211,-54.5976525 C494.926017,-49.6417421 494.926017,-44.703563 495.177211,-38.7694734 C495.242226,-37.2150257 495.673689,-35.5630555 495.605719,-34.064757 C495.449092,-30.6337421 493.876913,-27.7494436 493.891689,-24.652369 C493.989211,-19.18816 494.125152,-13.7653242 495.177211,-9.25269731 C494.719152,-1.16129433 495.42545,5.2397206 493.891689,12.9942281 C494.488644,17.3206758 493.605032,20.6216609 494.320196,24.9717505 C495.064913,26.0238102 494.024674,28.9376609 493.463181,30.1049743 C494.027629,31.6801087 494.432495,33.4148251 494.320196,35.6667057 C494.462047,38.3736907 493.522286,40.0020191 493.463181,42.5110042 C494.657092,48.1761684 494.234495,52.6356012 493.891689,58.7676907 C493.560704,61.6667654 494.447271,63.3453325 494.748704,65.6119893 C493.18539,69.9443475 494.009898,75.7247654 493.463181,80.1576012 C493.339062,84.3510639 493.489778,90.1255713 492.180614,94.2747057 C492.869181,97.0082878 493.028763,100.270855 493.463181,103.258586 C493.217898,106.311333 493.667092,108.238139 493.037629,111.385452 C494.293599,118.392288 494.751659,124.305691 495.177211,131.492795 C495.064913,139.578288 494.926017,145.338019 495.177211,153.311213 C496.314972,158.728139 496.802584,164.801124 498.170853,169.993452 C498.20336,172.097571 499.938077,172.502437 499.881928,174.698168 C498.46342,186.454049 499.586405,197.400198 499.881928,210.205183 C499.308614,215.320676 497.674375,220.303183 497.313838,226.033362 C496.968077,231.568497 497.692107,237.437571 497.313838,243.144109 C497.056734,247.045004 495.809629,250.922258 496.888286,254.696079 C494.834405,263.721333 495.455002,271.304437 495.605719,282.076228 C496.282465,285.675691 497.565032,288.669333 498.59936,291.914168 C498.460465,297.647303 498.339301,301.205392 499.45342,306.031273 C498.753032,308.894885 498.32748,312.036288 497.742346,315.015153 C498.348166,323.502556 496.554346,330.763541 497.313838,338.116139 C497.440913,340.953153 495.661868,341.881094 495.605719,344.534885 C496.507062,347.959989 495.245181,351.46784 495.177211,355.226885 C495.070823,360.850676 496.388853,366.929571 495.177211,372.766139 C496.486375,379.300139 496.60754,387.019183 498.59936,392.873482 C496.669599,400.128556 498.330435,407.504795 498.170853,414.6919 C498.111749,417.39593 497.313838,420.067452 496.888286,422.818765 C496.450913,425.643959 496.338614,428.572586 496.031271,431.374139 C495.413629,437.00975 494.009898,442.284825 493.463181,447.630825 C493.58139,453.43784 494.754614,456.786109 493.463181,462.604944 C494.766435,470.081661 496.306107,480.637721 494.320196,488.699571 C494.027629,491.270616 495.593898,491.988736 495.177211,494.686855 C494.57139,496.873721 496.752346,499.326556 494.748704,500.248586 C492.662316,500.337243 493.028763,497.976019 493.037629,495.972377 C493.058316,493.953959 492.287002,492.730497 492.180614,490.836198 C492.440674,487.387452 492.603211,483.844139 493.037629,480.56975 C492.579569,475.040527 491.32951,470.300347 490.898047,464.741571 C490.640943,461.207124 491.477271,458.763153 492.180614,456.186198 C491.175838,450.00387 492.180614,443.650139 492.180614,436.93587 C492.180614,430.239333 492.59139,423.2059 492.609122,416.402974 C492.623898,411.405691 491.970793,406.426139 492.180614,401.428855 C492.310644,398.39384 492.91351,395.547959 493.037629,392.444974 C493.412943,383.059183 493.079002,373.422198 493.891689,364.210765 C493.265181,356.34987 493.634584,348.542168 493.037629,340.681273 C492.866226,338.450079 492.331331,336.130228 492.180614,333.836974 C491.654584,325.772168 492.526375,317.60393 492.609122,309.453422 C492.650495,305.345661 492.26336,301.226079 492.180614,297.047392 C492.103778,293.046019 491.492047,289.026915 491.326554,285.06987 C491.093092,279.561333 491.486137,273.780915 491.752107,268.384676 C492.012166,263.201213 493.046495,258.230527 493.891689,253.413512 C494.326107,243.265273 494.240405,232.40187 494.320196,223.039721 C494.222674,219.289541 493.395211,215.678258 493.463181,211.916258 C493.477957,211.15381 493.950793,211.011959 493.891689,210.205183 C493.749838,208.207452 493.63754,204.678915 493.463181,201.64981 C492.963749,192.760497 494.048316,181.619303 493.463181,171.704527 C493.206077,167.304198 492.399301,163.143243 492.180614,158.869989 C494.790077,145.822676 492.748017,130.954944 490.898047,118.658258 C489.899181,109.248825 489.376107,99.360646 487.904405,90.424049 C488.451122,81.6765863 486.985331,71.9273027 489.186972,63.4724072 C488.684584,48.2677803 489.302226,31.3432131 489.61548,15.5593624 C489.878495,2.20175045 491.164017,-11.0524287 490.041032,-24.652369 C490.27154,-28.4882495 491.158107,-32.2413839 491.326554,-36.2013839 C491.52751,-40.9770257 490.824166,-45.864966 490.898047,-50.7469958 C491.093092,-63.5194734 491.557062,-78.5970257 492.180614,-93.0983093 C491.746196,-100.456817 491.081271,-107.401593 490.898047,-114.916727 C490.847808,-117.023802 490.954196,-119.201802 490.898047,-121.332518 C490.838943,-123.634638 490.176972,-125.924936 490.041032,-128.179772 C490.049898,-128.061563 490.061719,-130.836518 490.041032,-131.173414 C489.976017,-132.385056 490.472495,-133.109085 490.46954,-134.167056 C490.419301,-156.348966 489.346554,-179.331742 491.752107,-203.470011 C491.320644,-211.868757 491.26745,-219.850817 491.326554,-227.425056 C491.347241,-230.164548 491.495002,-232.883354 491.326554,-235.554876 C490.812346,-243.643324 488.882584,-251.362369 490.041032,-260.366936 C489.119002,-269.436518 489.222435,-278.878459 490.46954,-287.74413 C489.02148,-313.182697 488.835301,-338.95225 490.041032,-364.748399 C488.315181,-378.040996 486.985331,-393.656399 488.332913,-407.52822 C486.692763,-420.374578 488.300405,-436.583981 488.758465,-451.1621 C488.918047,-456.286459 488.660943,-462.536757 489.186972,-469.126906 C489.642077,-474.836399 489.036256,-483.291294 490.898047,-485.8121 C490.87736,-486.544996 491.217211,-486.920309 491.752107,-487.097623" id="Imported-Layers-Copy-5" fill="#303030" sketch:type="MSShapeGroup" transform="translate(495.000000, 7.888060) rotate(-90.000000) translate(-495.000000, -7.888060) "></path>
            </g>
        </g>
    </g>
</svg>